Adi and Nadav Analyzing Data - S01E05 - Social Mobility in Israel
…
Getting to know the data

What kind of indices are there?

What years does this data cover?

What categories do we have?

What is the item variable?

mobi %>% 
  count(index_name)

# A tibble: 101 × 2
   index_name             n
   <chr>              <int>
 1 אחוז זכאים לבגרות    756
 2 אלימות קשה           414
 3 בגרות איכותית       1163
 4 בגרות בקרב בני 26     30
 5 בגרות מצטיינת        756
 6 בדידות              2672
 7 בחירות ארציות        189
 8 בחירות מוניציפליות    63
 9 ביטוח בריאות        1081
10 גודל כיתה            882
# … with 91 more rows

mobi %>% 
  count(category)

# A tibble: 48 × 2
   category                               n
   <chr>                              <int>
 1 ארצי                                1096
 2 אשכול אזורי                         6055
 3 אשכול חברתי-כלכלי                   6711
 4 אשכול פריפריאלי                     6213
 5 גיל                                 3475
 6 דירה בבעלות                           28
 7 דירה בשכירות                          32
 8 דירוג סוציואקונומי של ישוב המגורים    72
 9 דת                                  1865
10 דת ראש משק הבית                       70
# … with 38 more rows

Data validity

Oops, we have identified some unclear “almost-duplicates” (same identifier-index-year-category-item, but different values), here they are:

dups <- mobi %>% 
  count(id, index_name, year, dt_type, category, item, sort = T) %>% 
  filter(n > 1)

dups

# A tibble: 843 × 7
      id index_name                           year dt_type category  item      n
   <dbl> <chr>                               <dbl> <chr>   <chr>     <chr> <int>
 1  4350 שביעות רצון ההורים מהחינוך בגיל הגן  2016 אחוז    גיל       NULL      5
 2  4380 נשים בתפקידי ניהול במגזר הציבורי     2012 אחוז    מגדר      נשים      4
 3  4380 נשים בתפקידי ניהול במגזר הציבורי     2013 אחוז    מגדר      נשים      4
 4  4380 נשים בתפקידי ניהול במגזר הציבורי     2014 אחוז    מגדר      נשים      4
 5  4380 נשים בתפקידי ניהול במגזר הציבורי     2015 אחוז    מגדר      נשים      4
 6  4380 נשים בתפקידי ניהול במגזר הציבורי     2016 אחוז    מגדר      נשים      4
 7  4380 נשים בתפקידי ניהול במגזר הציבורי     2017 אחוז    מגדר      נשים      4
 8  4380 נשים בתפקידי ניהול במגזר הציבורי     2018 אחוז    מגדר      נשים      4
 9  4380 נשים בתפקידי ניהול במגזר הציבורי     2019 אחוז    מגדר      נשים      4
10   145 בגרות איכותית                        2009 אחוז    אשכול פר… 5.0       3
# … with 833 more rows

indices_for_removal <- dups %>% 
  distinct(index_name)

clean_mobi <- mobi %>% 
  anti_join(indices_for_removal)

Joining, by = "index_name"

What are we left with, in terms of indices for our analysis?

clean_mobi %>% 
  distinct(index_name)

# A tibble: 33 × 1
   index_name                                                     
   <chr>                                                          
 1 שביעות רצון מאזור המגורים - זיהום האוויר מפריע                 
 2 תחושת ביטחון                                                   
 3 שביעות רצון מאזור המגורים - שירותי איסוף האשפה                 
 4 שביעות רצון מאזור המגורים - מדרכות וכבישים                     
 5 הערכה עצמית של בריאות                                          
 6 שביעות רצון מאזור המגורים - שיתוף הפעולה של אנשים לשיפור השכונה
 7 לחץ                                                            
 8 דיכאון                                                         
 9 עובדים בתפקיד ניהולי                                           
10 בדידות                                                         
# … with 23 more rows
…
Housing density

What is better? a higher or lower density?

density_housing <- clean_mobi %>% 
  filter(index_name == "צפיפות דיור")

density_housing

# A tibble: 104 × 7
      id index_name   year dt_type         category item  value
   <dbl> <chr>       <dbl> <chr>           <chr>    <chr> <dbl>
 1  4347 צפיפות דיור  2000 מספר נפשות לחדר ארצי     ארצי  0.982
 2  4347 צפיפות דיור  2000 מספר נפשות לחדר מגדר     גברים 0.902
 3  4347 צפיפות דיור  2000 מספר נפשות לחדר מגדר     נשים  1.47 
 4  4347 צפיפות דיור  2001 מספר נפשות לחדר ארצי     ארצי  0.965
 5  4347 צפיפות דיור  2001 מספר נפשות לחדר מגדר     גברים 0.888
 6  4347 צפיפות דיור  2001 מספר נפשות לחדר מגדר     נשים  1.49 
 7  4347 צפיפות דיור  2002 מספר נפשות לחדר ארצי     ארצי  0.958
 8  4347 צפיפות דיור  2002 מספר נפשות לחדר מגדר     גברים 0.882
 9  4347 צפיפות דיור  2002 מספר נפשות לחדר מגדר     נשים  1.46 
10  4347 צפיפות דיור  2003 מספר נפשות לחדר ארצי     ארצי  0.948
# … with 94 more rows
…
